------------------------------------------------------------------------------
SIMULATION                     CPUTIME (min)    SIM. TIME (s)     FINAL STEP
REDSHIFT baseline                    331.77          10.0100            26482034
REDSHIFT weak struct                 294.95          10.0063            17721556
REDSHIFT weak struct no links         98.38          10.0058            16381644
------------------------------------------------------------------------------
