------------------------------------------------------------------------------
SIMULATION                     CPUTIME (min)    SIM. TIME (s)     FINAL STEP
REDSHIFT baseline                    206.45          10.0073            19973408
REDSHIFT weak struct                 311.02          10.0041            22294057
REDSHIFT weak struct no links        219.97          10.0036            18413856
------------------------------------------------------------------------------
