3
[0 1 0]
0.003
[0 0 1]
0.1
5.e-5
2
5
n
3
[0 1 0]
0.003
[0 0 1]
0.1
5.e-5
2
5
n
3
[0 1 0]
0.003
[0 0 1]
0.1
5.e-5
2
5
n
3
[0 1 0]
0.003
[0 0 1]
0.1
5.e-5
2
5
n
3
[0 1 0]
0.003
[1 0 0]
0.1
5.e-5
2
5
n
3
[1 0 0]
0.003
[0 1 0]
0.1
5.e-5
2
5
n
3
[0 1 0]
0.003
[1 0 0]
0.1
5.e-5
2
5
n
3
[1 0 0]
0.003
[0 1 0]
0.1
5.e-5
2
5
n
3
[1 0 0]
0.003
[0 1 0]
0.1
5.e-5
2
5
n
3
[1 0 0]
0.003
[0 1 0]
0.1
5.e-5
2
5
n
3
[1 0 0]
0.003
[0 1 0]
0.1
5.e-5
2
5
n
3
[1 0 0]
0.003
[0 1 0]
0.1
5.e-5
2
5