1
[1 0 0]
3
2
0.01
0.002
0.003
1 
n
1
[0 1 0]
3
2
0.01
0.002
0.003
1 
n
1
[1 0 0]
3
2
0.01
0.002
0.003
1 
n
1
[0 1 0]
3
2
0.01
0.002
0.003
1
n
4
[0 0 1]
0.112
[1 0 0]
0.003
n
4
[0 0 1]
0.112
[0 1 0]
0.003
n
4
[0 0 1]
0.112
[1 0 0]
0.003
n
4
[0 0 1]
0.112
[0 1 0]
0.003
n
1
[1 0 0]
3
2
0.01
0.002
0.003
1 
n
1
[0 1 0]
3
2
0.01
0.002
0.003
1 
n
1
[1 0 0]
3
2
0.01
0.002
0.003
1 
n
1
[0 1 0]
3
2
0.01
0.002
0.003
1
n
4
[0 0 1]
0.112
[1 0 0]
0.003
n
4
[0 0 1]
0.112
[0 1 0]
0.003
n
4
[0 0 1]
0.112
[1 0 0]
0.003
n
4
[0 0 1]
0.112
[0 1 0]
0.003
n
4
[1 0 0]
0.112
[0 1 0]
0.003
n
4
[0 1 0]
0.112
[1 0 0]
0.003
n
4
[1 0 0]
0.112
[0 1 0]
0.003
n
4
[0 1 0]
0.112
[1 0 0]
0.003
n
1
[0 0 1]
3
2
0.01
0.002
0.003
1
y
y
y
y
y
y
y
n
4
[0 0 1]
0.112
[1 0 0]
0.003
n
4
[0 0 1]
0.112
[0 1 0]
0.003
n
4
[0 0 1]
0.112
[1 0 0]
0.003
n
4
[0 0 1]
0.112
[0 1 0]
0.003
n
1
[0 0 1]
3
2
0.01
0.002
0.003
1
y
y
y
y
y
y
y
n
4
[1 0 0]
0.112
[0 0 1]
0.003
y
n
4
[0 1 0]
0.112
[0 0 1]
0.003
y
n
4
[1 0 0]
0.112
[0 0 1]
0.003
y
n
4
[0 1 0]
0.112
[0 0 1]
0.003
y
n
4
[0 0 1]
0.112
[1 0 0]
0.003
n
4
[0 0 1]
0.112
[0 1 0]
0.003
n
4
[0 0 1]
0.112
[1 0 0]
0.003
n
4
[0 0 1]
0.112
[0 1 0]
0.003
n
1
[0 0 1]
3
2
0.01
0.002
0.003
1
y
y
y
y
y
y
y
y
y
y
y
y
y
y
y
n
1
[0 0 1]
2
2
0.01
0.002
0.003
1
y
y
y
y
n
1
[0 0 1]
1
2
0.01
0.002
0.003
1
y
y
y
y
y
y
y
y
y
y
y
n
1
[0 0 1]
2
2
0.01
0.002
0.003
1
y
y
y
y
y
y
y