1
[0 0 1]
4
2
0.01
0.002
0.008
1
y
y
y
y
y
n
1
[0 0 1]
6
2
0.02
0.002
0.008
1
n
1
[0 0 1]
2
2
0.04
0.002
0.005
1
y
y
y
y
y
y
y
y
y
y
y
n
4
[0 0 1]
2.685
[1 0 0]
0.0033
n
4
[0 0 1]
2.685
[0 1 0]
0.0033
y
n
4
[0 0 1]
2.685
[1 0 0]
0.0033
n
4
[0 0 1]
2.685
[0 1 0]
0.0033
y
n
1
[0 0 1]
4
2
0.05
0.002
0.008
1
y
n
1
[0 0 1]
2
2
0.04
0.002
0.005
1
y
y
y
y
y
y
y
y
y
y
y
n
1
[0 0 1]
6
2
0.02
0.002
0.008
1
n
1
[0 0 1]
10
2
0.02
0.002
0.008
1
n
4
[0 0 1]
1.350
[1 0 0]
0.0033
y
y
y
n
4
[0 0 1]
1.350
[0 1 0]
0.0033
y
n
4
[0 0 1]
1.350
[1 0 0]
0.0033
y
y
y
n
4
[0 0 1]
1.350
[0 1 0]
0.0033
y
n
2
[sqrt(2)/2 sqrt(2)/2 0]
[0 0 1]
0.475
0.005
2
2
n
2
[0 1 0]
[0 0 1]
0.475
0.005
2
2
n
2
[-sqrt(2)/2 sqrt(2)/2 0]
[0 0 1]
0.475
0.005
2
2
n
2
[-sqrt(2)/2 -sqrt(2)/2 0]
[0 0 1]
0.475
0.005
2
2
n
2
[0 -1 0]
[0 0 1]
0.475
0.005
2
2
n
2
[sqrt(2)/2 -sqrt(2)/2 0]
[0 0 1]
0.475
0.005
2
2
n
1
[0 0 1]
4
2
0.02
0.002
0.005
1
y
n
1
[0 1 0]
1
2
0.125
0.002
0.09
1
n
1
[1 0 0]
1
2
0.125
0.002
0.09
1
n
1
[0 1 0]
1
2
0.125
0.002
0.09
1
n
1
[1 0 0]
1
2
0.125
0.002
0.09
1
n
1
[0 0 1]
4
2
0.02
0.002
0.005
1
y
y
y
y
y
y
y
n
1
[0 0 1]
2
2
0.04
0.002
0.005
1
y
y
y
y
y
y
y
y
y
y
y