  0:1:10  Number_of_item(s)=4
   0:1:10:1
    0:1:10:1:1    TDataStd_String=plate1
    0:1:10:1:2    TDataStd_Integer=1
    0:1:10:1:3    TDataStd_Integer=1
    0:1:10:1:4    TDataStd_Integer=1
    0:1:10:1:5    TDataStd_Integer=1
    0:1:10:1:6    TDataStd_Integer=1
   0:1:10:2
    0:1:10:2:1    TDataStd_String=plate2
    0:1:10:2:2    TDataStd_Integer=2
    0:1:10:2:3    TDataStd_Integer=1
    0:1:10:2:4    TDataStd_Integer=2
    0:1:10:2:5    TDataStd_Integer=2
    0:1:10:2:6    TDataStd_Integer=2
   0:1:10:3
    0:1:10:3:1    TDataStd_String=newItem
    0:1:10:3:2    TDataStd_Integer=3
    0:1:10:3:3    TDataStd_Integer=1
    0:1:10:3:4    TDataStd_Integer=3
    0:1:10:3:5    TDataStd_Integer=3
    0:1:10:3:6    TDataStd_Integer=3
   0:1:10:4
    0:1:10:4:1    TDataStd_String=plate4
    0:1:10:4:2    TDataStd_Integer=4
    0:1:10:4:3    TDataStd_Integer=1
    0:1:10:4:4    TDataStd_Integer=4
    0:1:10:4:5    TDataStd_Integer=4
    0:1:10:4:6    TDataStd_Integer=4
  0:1:11  Number_of_item(s)=4
   0:1:11:1
    0:1:11:1:2    TDataStd_String=Box
    0:1:11:1:3    TDataStd_RealArray= (0.1, 0.1, 0.005)
    0:1:11:1:4    TDataStd_Real=0
    0:1:11:1:5    TDataStd_Real=0.14
    0:1:11:1:7    TDataStd_Real=1
    0:1:11:1:8    TDataStd_RealArray= (0, 0, 0)
   0:1:11:2
    0:1:11:2:2    TDataStd_String=Box
    0:1:11:2:3    TDataStd_RealArray= (0.1, 0.1, 0.005)
    0:1:11:2:4    TDataStd_Real=0
    0:1:11:2:5    TDataStd_Real=0.14
    0:1:11:2:7    TDataStd_Real=1
    0:1:11:2:8    TDataStd_RealArray= (0, 0, 0)
   0:1:11:3
    0:1:11:3:2    TDataStd_String=Box
    0:1:11:3:3    TDataStd_RealArray= (0.1, 0.1, 0.005)
    0:1:11:3:4    TDataStd_Real=0
    0:1:11:3:5    TDataStd_Real=0.14
    0:1:11:3:7    TDataStd_Real=1
    0:1:11:3:8    TDataStd_RealArray= (0, 0, 0)
   0:1:11:4
    0:1:11:4:2    TDataStd_String=Box
    0:1:11:4:3    TDataStd_RealArray= (0.1, 0.1, 0.005)
    0:1:11:4:4    TDataStd_Real=0
    0:1:11:4:5    TDataStd_Real=0.14
    0:1:11:4:7    TDataStd_Real=1
    0:1:11:4:8    TDataStd_RealArray= (0, 0, 0)
  0:1:12  Number_of_item(s)=4
   0:1:12:1
    0:1:12:1:2    TDataStd_RealArray= (0, 0, 0)
    0:1:12:1:3    TDataStd_RealArray= (0, 0, 0)
    0:1:12:1:4    TDataStd_RealArray= (1, 0, 0, 0)
    0:1:12:1:5    TDataStd_RealArray= (0, 0, 0)
   0:1:12:2
    0:1:12:2:2    TDataStd_RealArray= (-0.12, 0, 0)
    0:1:12:2:3    TDataStd_RealArray= (0, 0, 0)
    0:1:12:2:4    TDataStd_RealArray= (1, 0, 0, 0)
    0:1:12:2:5    TDataStd_RealArray= (0, 0, 0)
   0:1:12:3
    0:1:12:3:2    TDataStd_RealArray= (0, -0.12, 0)
    0:1:12:3:3    TDataStd_RealArray= (0, 0, 0)
    0:1:12:3:4    TDataStd_RealArray= (1, 0, 0, 0)
    0:1:12:3:5    TDataStd_RealArray= (0, 0, 0)
   0:1:12:4
    0:1:12:4:2    TDataStd_RealArray= (-0.12, -0.12, 0)
    0:1:12:4:3    TDataStd_RealArray= (0, 0, 0)
    0:1:12:4:4    TDataStd_RealArray= (1, 0, 0, 0)
    0:1:12:4:5    TDataStd_RealArray= (0, 0, 0)
  0:1:13  Number_of_item(s)=4
   0:1:13:1
    0:1:13:1:2    TDataStd_RealArray= (0, 0, 0)
    0:1:13:1:3    TDataStd_RealArray= (0, 0, 0)
    0:1:13:1:4    TDataStd_RealArray= (0, 0, 0, 0)
    0:1:13:1:5    TDataStd_RealArray= (0, 0, 0)
    0:1:13:1:6    TDataStd_RealArray= (0, 0, 0)
   0:1:13:2
    0:1:13:2:2    TDataStd_RealArray= (0, 0, 0)
    0:1:13:2:3    TDataStd_RealArray= (0, 0, 0)
    0:1:13:2:4    TDataStd_RealArray= (0, 0, 0, 0)
    0:1:13:2:5    TDataStd_RealArray= (0, 0, 0)
    0:1:13:2:6    TDataStd_RealArray= (0, 0, 0)
   0:1:13:3
    0:1:13:3:2    TDataStd_RealArray= (0, 0, 0)
    0:1:13:3:3    TDataStd_RealArray= (0, 0, 0)
    0:1:13:3:4    TDataStd_RealArray= (0, 0, 0, 0)
    0:1:13:3:5    TDataStd_RealArray= (0, 0, 0)
    0:1:13:3:6    TDataStd_RealArray= (0, 0, 0)
   0:1:13:4
    0:1:13:4:2    TDataStd_RealArray= (0, 0, 0)
    0:1:13:4:3    TDataStd_RealArray= (0, 0, 0)
    0:1:13:4:4    TDataStd_RealArray= (0, 0, 0, 0)
    0:1:13:4:5    TDataStd_RealArray= (0, 0, 0)
    0:1:13:4:6    TDataStd_RealArray= (0, 0, 0)
  0:1:14  Number_of_item(s)=4
   0:1:14:1
    0:1:14:1:2    TDataStd_Integer=0
    0:1:14:1:3    TDataStd_Real=40000
    0:1:14:1:4    TDataStd_Real=0
    0:1:14:1:5    TDataStd_Integer=1
    0:1:14:1:6    TDataStd_Real=0
    0:1:14:1:7    TDataStd_Real=0
    0:1:14:1:8    TDataStd_Real=0
    0:1:14:1:9    TDataStd_Integer=0
    0:1:14:1:10    TDataStd_Integer=0
    0:1:14:1:11    TDataStd_Real=100
    0:1:14:1:12    TDataStd_Real=0
   0:1:14:2
    0:1:14:2:2    TDataStd_Integer=0
    0:1:14:2:3    TDataStd_Real=40000
    0:1:14:2:4    TDataStd_Real=0
    0:1:14:2:5    TDataStd_Integer=1
    0:1:14:2:6    TDataStd_Real=0
    0:1:14:2:7    TDataStd_Real=0
    0:1:14:2:8    TDataStd_Real=0
    0:1:14:2:9    TDataStd_Integer=0
    0:1:14:2:10    TDataStd_Integer=0
    0:1:14:2:11    TDataStd_Real=100
    0:1:14:2:12    TDataStd_Real=0
   0:1:14:3
    0:1:14:3:2    TDataStd_Integer=0
    0:1:14:3:3    TDataStd_Real=40000
    0:1:14:3:4    TDataStd_Real=0
    0:1:14:3:5    TDataStd_Integer=1
    0:1:14:3:6    TDataStd_Real=0
    0:1:14:3:7    TDataStd_Real=0
    0:1:14:3:8    TDataStd_Real=0
    0:1:14:3:9    TDataStd_Integer=0
    0:1:14:3:10    TDataStd_Integer=0
    0:1:14:3:11    TDataStd_Real=100
    0:1:14:3:12    TDataStd_Real=0
   0:1:14:4
    0:1:14:4:2    TDataStd_Integer=0
    0:1:14:4:3    TDataStd_Real=40000
    0:1:14:4:4    TDataStd_Real=0
    0:1:14:4:5    TDataStd_Integer=1
    0:1:14:4:6    TDataStd_Real=0
    0:1:14:4:7    TDataStd_Real=0
    0:1:14:4:8    TDataStd_Real=0
    0:1:14:4:9    TDataStd_Integer=0
    0:1:14:4:10    TDataStd_Integer=0
    0:1:14:4:11    TDataStd_Real=100
    0:1:14:4:12    TDataStd_Real=0
