 0:1
  0:1:10  Number_of_item(s)=3
   0:1:10:1
    0:1:10:1:1    TDataStd_String=ME_Data_01
    0:1:10:1:2    TDataStd_Integer=1
    0:1:10:1:3    TDataStd_Integer=1
    0:1:10:1:4    TDataStd_Integer=1
    0:1:10:1:5    TDataStd_Integer=1
    0:1:10:1:6    TDataStd_Integer=1
   0:1:10:2
    0:1:10:2:1    TDataStd_String=ME_Data_02
    0:1:10:2:2    TDataStd_Integer=2
    0:1:10:2:3    TDataStd_Integer=1
    0:1:10:2:4    TDataStd_Integer=2
    0:1:10:2:5    TDataStd_Integer=2
    0:1:10:2:6    TDataStd_Integer=2
   0:1:10:3
    0:1:10:3:1    TDataStd_String=ME_Data_03
    0:1:10:3:2    TDataStd_Integer=3
    0:1:10:3:3    TDataStd_Integer=2
    0:1:10:3:4    TDataStd_Integer=3
    0:1:10:3:5    TDataStd_Integer=3
    0:1:10:3:6    TDataStd_Integer=3
  0:1:11  Number_of_item(s)=3
   0:1:11:1
    0:1:11:1:1    TDataStd_String=Geometry_Data_01
    0:1:11:1:2    TDataStd_String=Box
    0:1:11:1:3    TDataStd_RealArray= (2000, 2000, 2000)
	0:1:11:1:4    
    0:1:11:1:5    TDataStd_Real=8e+009
    0:1:11:1:6    TDataStd_Real=0
    0:1:11:1:7    TDataStd_Real=0
    0:1:11:1:8    TDataStd_RealArray= (0, 0, 0)
   0:1:11:2
    0:1:11:2:1    TDataStd_String=Geometry_Data_02
    0:1:11:2:2    TDataStd_String=Cylinder
    0:1:11:2:3    TDataStd_RealArray= (2000, 0, 10000)
    0:1:11:2:4    TDataStd_Real=4
    0:1:11:2:5    TDataStd_Real=1.25664e+011
    0:1:11:2:6    TDataStd_Real=0
    0:1:11:2:7    TDataStd_Real=0
    0:1:11:2:8    TDataStd_RealArray= (0, 0, 0)
   0:1:11:3
    0:1:11:3:1    TDataStd_String=Geometry_Data_03
    0:1:11:3:2    TDataStd_String=Sphere
    0:1:11:3:3    TDataStd_RealArray= (2000, 20, 20000)
    0:1:11:3:5    TDataStd_Real=1.25664e+011
    0:1:11:3:6    TDataStd_Real=0
    0:1:11:3:7    TDataStd_Real=1
    0:1:11:3:8    TDataStd_RealArray= (0, 1, 0)
  0:1:12  Number_of_item(s)=3
   0:1:12:1
    0:1:12:1:1    TDataStd_String=DynamicInitialData_01
    0:1:12:1:2    TDataStd_RealArray= (2.6975, 0, 2.685)
    0:1:12:1:3    TDataStd_RealArray= (0, 0, -0.0001)
    0:1:12:1:4    TDataStd_RealArray= (1, 0, 0, 0)
    0:1:12:1:5    TDataStd_RealArray= (0, 0, 0)
   0:1:12:2
    0:1:12:2:1    TDataStd_String=DynamicInitialData_02
    0:1:12:2:2    TDataStd_RealArray= (2.6975, 0, 2.685)
    0:1:12:2:3    TDataStd_RealArray= (0, 0, -0.0001)
    0:1:12:2:4    TDataStd_RealArray= (1, 0, 0, 0)
    0:1:12:2:5    TDataStd_RealArray= (0, 0, 0)
   0:1:12:3
    0:1:12:3:1    TDataStd_String=DynamicInitialData_03
    0:1:12:3:2    TDataStd_RealArray= (2.6975, 0, 2.685)
    0:1:12:3:3    TDataStd_RealArray= (0, 0, -0.0001)
    0:1:12:3:4    TDataStd_RealArray= (1, 4, 0, 0)
    0:1:12:3:5    TDataStd_RealArray= (0, 0, 5)	
  0:1:13  Number_of_item(s)=3
   0:1:13:1
    0:1:13:1:1    TDataStd_String=DynamicData_01
    0:1:13:1:2    TDataStd_RealArray= (0, 0, 0)
    0:1:13:1:3    TDataStd_RealArray= (0, 0, 0)
    0:1:13:1:4    TDataStd_RealArray= (0, 0, 0, 0)
    0:1:13:1:5    TDataStd_RealArray= (0, 0, 0)
    0:1:13:1:6    TDataStd_RealArray= (0, 0, 0)
   0:1:13:2
    0:1:13:2:1    TDataStd_String=DynamicData_02
    0:1:13:2:2    TDataStd_RealArray= (0, 0, 0)
    0:1:13:2:3    TDataStd_RealArray= (0, 0, 0)
    0:1:13:2:4    TDataStd_RealArray= (0, 0, 0, 0)
    0:1:13:2:5    TDataStd_RealArray= (0, 0, 0)
    0:1:13:2:6    TDataStd_RealArray= (0, 0, 0)
   0:1:13:3
    0:1:13:3:1    TDataStd_String=DynamicData_03
    0:1:13:3:2    TDataStd_RealArray= (1, 0, 0)
    0:1:13:3:3    TDataStd_RealArray= (0, 1, 0)
    0:1:13:3:4    TDataStd_RealArray= (0, 0, 1, 0)
    0:1:13:3:5    TDataStd_RealArray= (0, 0, 0)
    0:1:13:3:6    TDataStd_RealArray= (0, 1, 0)
  0:1:14  Number_of_item(s)=3
   0:1:14:1
    0:1:14:1:1    TDataStd_String=FragmentationData_01
    0:1:14:1:2    TDataStd_Integer=1
    0:1:14:1:3    TDataStd_Real=40000
    0:1:14:1:4    TDataStd_Real=40000
    0:1:14:1:5    TDataStd_Integer=1
    0:1:14:1:6    TDataStd_Real=0.001
    0:1:14:1:7    TDataStd_Real=0.2
    0:1:14:1:8    TDataStd_Real=0.1
    0:1:14:1:9    TDataStd_Integer=0
    0:1:14:1:10    TDataStd_Integer=0
    0:1:14:1:11    TDataStd_Real=100
    0:1:14:1:12   
   0:1:14:2
    0:1:14:2:1    TDataStd_String=FragmentationData_02
    0:1:14:2:2    TDataStd_Integer=1
    0:1:14:2:3    TDataStd_Real=40000
    0:1:14:2:4    TDataStd_Real=0
    0:1:14:2:5    TDataStd_Integer=1
    0:1:14:2:6    TDataStd_Real=0.001
    0:1:14:2:7    TDataStd_Real=0.2
    0:1:14:2:8    TDataStd_Real=0.1
    0:1:14:2:9    TDataStd_Integer=0
    0:1:14:2:10    TDataStd_Integer=0
    0:1:14:2:12    TDataStd_Real=5
   0:1:14:3
    0:1:14:3:1    TDataStd_String=FragmentationData_03
    0:1:14:3:2    TDataStd_Integer=1
    0:1:14:3:3    TDataStd_Real=60000
    0:1:14:3:4    TDataStd_Real=0
    0:1:14:3:5    TDataStd_Integer=1
    0:1:14:3:6    TDataStd_Real=0.001
    0:1:14:3:7    TDataStd_Real=0.2
    0:1:14:3:8    TDataStd_Real=0.1
    0:1:14:3:9    TDataStd_Integer=0
    0:1:14:3:10    TDataStd_Integer=0
    0:1:14:3:11    TDataStd_Real=400
    0:1:14:3:12    TDataStd_Real=7
