  0:1:10  Number_of_item(s)=1
   0:1:10:1
    0:1:10:1:1    TDataStd_String=Sphere
    0:1:10:1:2    TDataStd_Integer=1
    0:1:10:1:3    TDataStd_Integer=1
    0:1:10:1:4    TDataStd_Integer=1
    0:1:10:1:5    TDataStd_Integer=1
    0:1:10:1:6    TDataStd_Integer=1
  0:1:11  Number_of_item(s)=1
   0:1:11:1
    0:1:11:1:2    TDataStd_String=Sphere
    0:1:11:1:3    TDataStd_RealArray= (0.004, 0, 0)
    0:1:11:1:4    TDataStd_Real=0
    0:1:11:1:5    TDataStd_Real=0.000750631
    0:1:11:1:7    TDataStd_Real=1
    0:1:11:1:8    TDataStd_RealArray= (0, 0, 0)
  0:1:12  Number_of_item(s)=1
   0:1:12:1
    0:1:12:1:2    TDataStd_RealArray= (0, 0, -0.5)
    0:1:12:1:3    TDataStd_RealArray= (0, 0, 7000)
    0:1:12:1:4    TDataStd_RealArray= (1, 0, 0, 0)
    0:1:12:1:5    TDataStd_RealArray= (0, 0, 0)
  0:1:13  Number_of_item(s)=1
   0:1:13:1
    0:1:13:1:2    TDataStd_RealArray= (0, 0, 0)
    0:1:13:1:3    TDataStd_RealArray= (0, 0, 0)
    0:1:13:1:4    TDataStd_RealArray= (0, 0, 0, 0)
    0:1:13:1:5    TDataStd_RealArray= (0, 0, 0)
    0:1:13:1:6    TDataStd_RealArray= (0, 0, 0)
  0:1:14  Number_of_item(s)=1
   0:1:14:1
    0:1:14:1:2    TDataStd_Integer=0
    0:1:14:1:3    TDataStd_Real=40000
    0:1:14:1:4    TDataStd_Real=0
    0:1:14:1:5    TDataStd_Integer=1
    0:1:14:1:6    TDataStd_Real=0
    0:1:14:1:7    TDataStd_Real=0
    0:1:14:1:8    TDataStd_Real=0
    0:1:14:1:9    TDataStd_Integer=0
    0:1:14:1:10    TDataStd_Integer=0
    0:1:14:1:11    TDataStd_Real=200
    0:1:14:1:12    TDataStd_Real=0
