% load correct Nishida results
%                  TN  Dp  Vp   s1       s2       s3       s4
    5  3.2 3.01 1.136746 1.448108 1.029720 0.739014; 
    6  1.6 3.09 1.499650 1.056789 1.325117 0.814322; 
    7  3.2 4.14 1.455030 1.320553 1.027727 0.649057; 
    8  1.6 4.06 1.334137 1.291440 1.253838 0.757464; 
    11 1.6 2.50 1.035417 1.211411 1.224158 0.790349; 
    12 1.6 3.50 1.080683 1.462822 1.183471 0.801643; 
    13 2.4 2.00 1.122807 1.466516 1.282118 0.837401; 
    14 2.4 2.50 1.334955 1.495162 1.264006 0.843588; 
    15 2.4 3.00 1.032349 1.518564 1.041850 0.800538; 
    16 2.4 3.50 1.071921 1.397354 1.028603 0.780449; 
    17 2.4 4.00 1.071255 1.483894 1.033837 0.683386; 
    18 3.2 2.50 1.000816 1.397753 1.018520 0.811151; 
    19 3.2 3.50 1.000000 1.559633 1.019044 0.837899; 
    20 1.8 3.20 1.338546 1.509621 1.310013 0.760632; 
    21 1.6 3.20 1.043470 1.473874 1.173945 0.824401; 
    30 1.0 2.00 1.241215 1.403443 1.035348 0.833029; 
    31 1.0 2.50 1.512802 1.514154 1.031558 0.808277; 
    32 1.0 3.00 1.393867 1.115476 1.018495 0.812680; 
    33 1.0 3.50 1.966905 1.311366 1.036626 0.845000; 
    34 1.0 4.00 1.919362 1.368572 1.023687 0.779070; 
    35 1.0 4.50 1.825992 1.485581 1.011609 0.694272; 
    36 1.0 5.00 1.983308 1.340919 1.015259 0.702671; 
    40 0.5 2.00 1.040197 1.535014 1.134521 0.831199; 
    42 0.5 3.00 1.747587 1.510892 1.260486 0.826564; 
    44 0.5 4.00 1.380771 1.439608 1.031318 0.668357; 
    46 0.5 5.00 1.516179 1.541782 1.027189 0.836733; 
    56 1.6 5.00 1.964124 1.223084 1.268010 0.810990; 
    66 3.2 5.00 1.595000 1.417517 1.023395 0.774642; 
    70 4.6 2.00 1.047179 1.475452 1.034442 0.819743; 
    72 4.6 3.00 1.510490 1.517449 1.038843 0.788619; 
    74 4.6 4.00 1.792437 1.524425 1.027495 0.814143; 
    76 4.6 5.00 1.960100 1.000000 1.028625 0.826641; 
    80 6.0 2.00 1.143987 1.462176 1.032537 0.837848; 
    82 6.0 3.00 1.428884 1.432277 1.022225 0.769118; 
    84 6.0 4.00 1.909705 1.424987 1.023603 0.797041; 
    86 6.0 5.00 1.780449 1.180395 1.012308 0.764994; 
    222 3.2 2.0 1.000000 1.390939 1.270089 0.845000; 
    333 1.6 2.0 1.893760 1.387973 1.341242 0.838047